** Profile: "SCHEMATIC1-OLA_measure"  [ C:\Users\Suurballe\Google Drive\IT Teknolog (Personal)\2. Semester\Electronics\OLA21\OLA21-PSpiceFiles\SCHEMATIC1\OLA_measure.sim ] 

** Creating circuit file "OLA_measure.cir" 
** WARNING: THIS AUTOMATICALLY GENERATED FILE MAY BE OVERWRITTEN BY SUBSEQUENT SIMULATIONS

*Libraries: 
* Profile Libraries :
* Local Libraries :
* From [PSPICE NETLIST] section of C:\Users\Suurballe\cdssetup\OrCAD_PSpice\17.4.0\PSpice.ini file:
.lib "nom.lib" 

*Analysis directives: 
.TRAN  0 1000ns 0 
.OPTIONS ADVCONV
.PROBE64 V(alias(*)) I(alias(*)) W(alias(*)) D(alias(*)) NOISE(alias(*)) 
.INC "..\SCHEMATIC1.net" 


.END
